Do Older Films Have More IMDB ratings?
…
Parsed with column specification:
cols(
  film_id = col_double(),
  film = col_character(),
  mentions = col_double(),
  year = col_double(),
  imdb_categories = col_character(),
  imdb_ratings = col_double(),
  imdb_stars = col_double(),
  length = col_double()
)

movies

# A tibble: 66 x 8
   film_id film    mentions  year imdb_categories imdb_ratings imdb_stars length
     <dbl> <chr>      <dbl> <dbl> <chr>                  <dbl>      <dbl>  <dbl>
 1       1 8 1/2          1  1963 Drama                 106555        8      138
 2       2 About ~        2  2013 Comedy, Drama,~       290158        7.8    123
 3       3 Avatar         1  2009 Action, Advent~      1101874        7.8    162
 4       4 Avenge~        1  2019 Action, Advent~       757530        8.4    181
 5       5 Avenge~        1  2018 Action, Advent~       798058        8.4    149
 6       6 Back t~        1  1985 Adventure, Com~      1028636        8.5    116
 7       7 Beaches        1  1988 Comedy, Drama,~        22854        7      123
 8       8 Beetle~        1  1988 Comedy, Fantasy       252221        7.5     92
 9       9 Being ~        1  1999 Comedy, Drama,~       305588        7.7    113
10      10 The Bi~        1  1998 Comedy, Crime,~       714755        8.1    117
# ... with 56 more rows
…
